\relax 
\select@language{english}
\@writefile{toc}{\select@language{english}}
\@writefile{lof}{\select@language{english}}
\@writefile{lot}{\select@language{english}}
\@writefile{toc}{\contentsline {section}{\numberline {1}Question1}{1}}
\@writefile{toc}{\contentsline {subsection}{\numberline {1.1}}{1}}
\@writefile{toc}{\contentsline {subsection}{\numberline {1.2}}{1}}
\@writefile{toc}{\contentsline {section}{\numberline {2}Question2}{1}}
\@writefile{toc}{\contentsline {subsection}{\numberline {2.1}}{1}}
\@writefile{toc}{\contentsline {subsection}{\numberline {2.2}}{1}}
\@writefile{toc}{\contentsline {subsection}{\numberline {2.3}}{2}}
\@writefile{toc}{\contentsline {subsection}{\numberline {2.4}}{2}}
\@writefile{toc}{\contentsline {section}{\numberline {3}Question 3}{3}}
\@writefile{toc}{\contentsline {subsection}{\numberline {3.1}}{3}}
\@writefile{toc}{\contentsline {subsection}{\numberline {3.2}}{3}}
\@writefile{lof}{\contentsline {figure}{\numberline {1}{\ignorespaces K=3}}{4}}
\newlabel{fig:digit}{{1}{4}}
\@writefile{lof}{\contentsline {figure}{\numberline {2}{\ignorespaces K=4}}{4}}
\newlabel{fig:digit}{{2}{4}}
\@writefile{lof}{\contentsline {figure}{\numberline {3}{\ignorespaces K=5}}{4}}
\newlabel{fig:digit}{{3}{4}}
