\contentsline {section}{\numberline {1}question1}{1}
\contentsline {paragraph}{}{1}
\contentsline {paragraph}{(part b)}{1}
\contentsline {section}{\numberline {2}section1}{1}
\contentsline {subsection}{\numberline {2.1}subsection1}{1}
\contentsline {subsubsection}{\numberline {2.1.1}subsubsection1}{1}
\contentsline {paragraph}{paragraph1}{1}
\contentsline {subparagraph}{subparagraph1}{2}
\contentsline {subsection}{\numberline {2.2}subsection2}{2}
\contentsline {paragraph}{paragraph1}{2}
