\relax 
\select@language{english}
\@writefile{toc}{\select@language{english}}
\@writefile{lof}{\select@language{english}}
\@writefile{lot}{\select@language{english}}
\@writefile{toc}{\contentsline {section}{\numberline {1}Question1}{1}}
\@writefile{toc}{\contentsline {subsection}{\numberline {1.1}}{1}}
\@writefile{toc}{\contentsline {subsection}{\numberline {1.2}}{1}}
\@writefile{toc}{\contentsline {subsection}{\numberline {1.3}}{1}}
\@writefile{toc}{\contentsline {subsection}{\numberline {1.4}}{1}}
\@writefile{toc}{\contentsline {subsection}{\numberline {1.5}}{2}}
\@writefile{toc}{\contentsline {subsection}{\numberline {1.6}}{2}}
\@writefile{toc}{\contentsline {subsection}{\numberline {1.7}}{2}}
\@writefile{toc}{\contentsline {subsection}{\numberline {1.8}}{2}}
\@writefile{toc}{\contentsline {section}{\numberline {2}Question 2}{3}}
\@writefile{toc}{\contentsline {subsection}{\numberline {2.1}}{3}}
\@writefile{lof}{\contentsline {figure}{\numberline {1}{\ignorespaces Density of Exp(1)}}{3}}
\newlabel{fig:digit}{{1}{3}}
\@writefile{toc}{\contentsline {subsection}{\numberline {2.2}}{3}}
\@writefile{lof}{\contentsline {figure}{\numberline {2}{\ignorespaces Visual representation of the likelihood}}{3}}
\newlabel{fig:digit}{{2}{3}}
\@writefile{toc}{\contentsline {subsection}{\numberline {2.3}}{4}}
\@writefile{lof}{\contentsline {figure}{\numberline {3}{\ignorespaces Density of Exp(1) and Exp(2)}}{4}}
\newlabel{fig:digit}{{3}{4}}
\@writefile{toc}{\contentsline {subsection}{\numberline {2.4}}{4}}
\@writefile{toc}{\contentsline {subsection}{\numberline {2.5}}{4}}
\@writefile{toc}{\contentsline {subsection}{\numberline {2.6}}{5}}
\@writefile{toc}{\contentsline {subsection}{\numberline {2.7}}{5}}
\@writefile{lof}{\contentsline {figure}{\numberline {4}{\ignorespaces Density of Exp(1) and Exp(2)}}{5}}
\newlabel{fig:digit}{{4}{5}}
